Rebalancing Tool
…
## The following object is masked from 'package:graphics':
## 
##     legend

## Loading required package: quantmod

## Loading required package: TTR

## Version 0.4-0 included new data defaults. See ?getSymbols.

Set Query Parameters

Get Stock Data

## # A tibble: 100 x 8
##    symbol date        open  high   low close    volume adjusted
##    <chr>  <date>     <dbl> <dbl> <dbl> <dbl>     <dbl>    <dbl>
##  1 SPY    2013-11-12  177.  177.  176.  177.  83990000     160.
##  2 SPY    2013-11-13  176.  178.  176.  178. 103844000     162.
##  3 SPY    2013-11-14  179.  179.  178.  179. 103435000     162.
##  4 SPY    2013-11-15  180.  180.  179.  180. 102818000     163.
##  5 SPY    2013-11-18  180.  180.  179.  179. 104796000     163.
##  6 SPY    2013-11-19  179.  180.  179.  179.  93891000     162.
##  7 SPY    2013-11-20  179.  180.  178.  178. 124909000     162.
##  8 SPY    2013-11-21  179.  180.  179.  180.  92841000     163.
##  9 SPY    2013-11-22  180.  181.  180.  181.  81296000     164.
## 10 SPY    2013-11-25  181.  181.  180.  181.  79486000     164.
## # ... with 90 more rows
…
Calculate Returns

## # A tibble: 54 x 4
## # Groups:   symbol [9]
##    symbol  year adjusted   return
##    <chr>  <dbl>    <dbl>    <dbl>
##  1 TLT     2018    113.   -0.0865
##  2 TLT     2017    124.    0.0918
##  3 TLT     2016    114.    0.0117
##  4 TLT     2015    112.   -0.0179
##  5 TLT     2014    114.    0.273 
##  6 TLT     2013     89.8  NA     
##  7 SPY     2018    278.    0.0545
##  8 SPY     2017    263.    0.217 
##  9 SPY     2016    216.    0.120 
## 10 SPY     2015    193.    0.0123
## # ... with 44 more rows

## # A tibble: 549 x 3
## # Groups:   symbol [9]
##    symbol date         returns
##    <chr>  <date>         <dbl>
##  1 TLT    2018-11-09  0.000397
##  2 TLT    2018-10-31 -0.0293  
##  3 TLT    2018-09-28 -0.0286  
##  4 TLT    2018-08-31  0.0131  
##  5 TLT    2018-07-31 -0.0144  
##  6 TLT    2018-06-29  0.00646 
##  7 TLT    2018-05-31  0.0200  
##  8 TLT    2018-04-30 -0.0209  
##  9 TLT    2018-03-29  0.0286  
## 10 TLT    2018-02-28 -0.0304  
## # ... with 539 more rows
…
